<?xml version="1.0" encoding="utf-8"?>
<!-- Generator: Adobe Illustrator 22.1.0, SVG Export Plug-In . SVG Version: 6.00 Build 0)  -->
<svg version="1.1" id="Ebene_1" xmlns="http://www.w3.org/2000/svg" xmlns:xlink="http://www.w3.org/1999/xlink" x="0px" y="0px"
	 viewBox="0 0 24 24" style="enable-background:new 0 0 24 24;" xml:space="preserve">
<style type="text/css">
	.st0{fill:#7D346E;}
</style>
<path class="st0" d="M24,18H11l-7,5v-5H0V1h24V18z M13,8h-2v6h2V8z M12,6.5c0.7,0,1.3-0.6,1.3-1.3S12.7,4,12,4s-1.3,0.6-1.3,1.3
	S11.3,6.5,12,6.5z"/>
</svg>
